{
  "count": 1118,
  "next": "https://pokeapi.co/api/v2/pokemon/?offset=151&limit=151",
  "previous": null,
  "results": [
    { "name": "bulbasaur", "url": "url" },
    { "name": "ivysaur", "url": "url" },
    { "name": "venusaur", "url": "url" },
    { "name": "charmander", "url": "url" },
    { "name": "charmeleon", "url": "url" },
    { "name": "charizard", "url": "url" },
    { "name": "squirtle", "url": "url" },
    { "name": "wartortle", "url": "url" },
    { "name": "blastoise", "url": "url" },
    { "name": "caterpie", "url": "url" },
    { "name": "metapod", "url": "url" },
    { "name": "butterfree", "url": "url" },
    { "name": "weedle", "url": "url" },
    { "name": "kakuna", "url": "url" },
    { "name": "beedrill", "url": "url" },
    { "name": "pidgey", "url": "url" },
    { "name": "pidgeotto", "url": "url" },
    { "name": "pidgeot", "url": "url" },
    { "name": "rattata", "url": "url" },
    { "name": "raticate", "url": "url" },
    { "name": "spearow", "url": "url" },
    { "name": "fearow", "url": "url" },
    { "name": "ekans", "url": "url" },
    { "name": "arbok", "url": "url" },
    { "name": "pikachu", "url": "url" },
    { "name": "raichu", "url": "url" },
    { "name": "sandshrew", "url": "url" },
    { "name": "sandslash", "url": "url" },
    { "name": "nidoran-f", "url": "url" },
    { "name": "nidorina", "url": "url" },
    { "name": "nidoqueen", "url": "url" },
    { "name": "nidoran-m", "url": "url" },
    { "name": "nidorino", "url": "url" },
    { "name": "nidoking", "url": "url" },
    { "name": "clefairy", "url": "url" },
    { "name": "clefable", "url": "url" },
    { "name": "vulpix", "url": "url" },
    { "name": "ninetales", "url": "url" },
    { "name": "jigglypuff", "url": "url" },
    { "name": "wigglytuff", "url": "url" },
    { "name": "zubat", "url": "url" },
    { "name": "golbat", "url": "url" },
    { "name": "oddish", "url": "url" },
    { "name": "gloom", "url": "url" },
    { "name": "vileplume", "url": "url" },
    { "name": "paras", "url": "url" },
    { "name": "parasect", "url": "url" },
    { "name": "venonat", "url": "url" },
    { "name": "venomoth", "url": "url" },
    { "name": "diglett", "url": "url" },
    { "name": "dugtrio", "url": "url" },
    { "name": "meowth", "url": "url" },
    { "name": "persian", "url": "url" },
    { "name": "psyduck", "url": "url" },
    { "name": "golduck", "url": "url" },
    { "name": "mankey", "url": "url" },
    { "name": "primeape", "url": "url" },
    { "name": "growlithe", "url": "url" },
    { "name": "arcanine", "url": "url" },
    { "name": "poliwag", "url": "url" },
    { "name": "poliwhirl", "url": "url" },
    { "name": "poliwrath", "url": "url" },
    { "name": "abra", "url": "url" },
    { "name": "kadabra", "url": "url" },
    { "name": "alakazam", "url": "url" },
    { "name": "machop", "url": "url" },
    { "name": "machoke", "url": "url" },
    { "name": "machamp", "url": "url" },
    { "name": "bellsprout", "url": "url" },
    { "name": "weepinbell", "url": "url" },
    { "name": "victreebel", "url": "url" },
    { "name": "tentacool", "url": "url" },
    { "name": "tentacruel", "url": "url" },
    { "name": "geodude", "url": "url" },
    { "name": "graveler", "url": "url" },
    { "name": "golem", "url": "url" },
    { "name": "ponyta", "url": "url" },
    { "name": "rapidash", "url": "url" },
    { "name": "slowpoke", "url": "url" },
    { "name": "slowbro", "url": "url" },
    { "name": "magnemite", "url": "url" },
    { "name": "magneton", "url": "url" },
    { "name": "farfetchd", "url": "url" },
    { "name": "doduo", "url": "url" },
    { "name": "dodrio", "url": "url" },
    { "name": "seel", "url": "url" },
    { "name": "dewgong", "url": "url" },
    { "name": "grimer", "url": "url" },
    { "name": "muk", "url": "url" },
    { "name": "shellder", "url": "url" },
    { "name": "cloyster", "url": "url" },
    { "name": "gastly", "url": "url" },
    { "name": "haunter", "url": "url" },
    { "name": "gengar", "url": "url" },
    { "name": "onix", "url": "url" },
    { "name": "drowzee", "url": "url" },
    { "name": "hypno", "url": "url" },
    { "name": "krabby", "url": "url" },
    { "name": "kingler", "url": "url" },
    { "name": "voltorb", "url": "url" },
    { "name": "electrode", "url": "url" },
    { "name": "exeggcute", "url": "url" },
    { "name": "exeggutor", "url": "url" },
    { "name": "cubone", "url": "url" },
    { "name": "marowak", "url": "url" },
    { "name": "hitmonlee", "url": "url" },
    { "name": "hitmonchan", "url": "url" },
    { "name": "lickitung", "url": "url" },
    { "name": "koffing", "url": "url" },
    { "name": "weezing", "url": "url" },
    { "name": "rhyhorn", "url": "url" },
    { "name": "rhydon", "url": "url" },
    { "name": "chansey", "url": "url" },
    { "name": "tangela", "url": "url" },
    { "name": "kangaskhan", "url": "url" },
    { "name": "horsea", "url": "url" },
    { "name": "seadra", "url": "url" },
    { "name": "goldeen", "url": "url" },
    { "name": "seaking", "url": "url" },
    { "name": "staryu", "url": "url" },
    { "name": "starmie", "url": "url" },
    { "name": "mr-mime", "url": "url" },
    { "name": "scyther", "url": "url" },
    { "name": "jynx", "url": "url" },
    { "name": "electabuzz", "url": "url" },
    { "name": "magmar", "url": "url" },
    { "name": "pinsir", "url": "url" },
    { "name": "tauros", "url": "url" },
    { "name": "magikarp", "url": "url" },
    { "name": "gyarados", "url": "url" },
    { "name": "lapras", "url": "url" },
    { "name": "ditto", "url": "url" },
    { "name": "eevee", "url": "url" },
    { "name": "vaporeon", "url": "url" },
    { "name": "jolteon", "url": "url" },
    { "name": "flareon", "url": "url" },
    { "name": "porygon", "url": "url" },
    { "name": "omanyte", "url": "url" },
    { "name": "omastar", "url": "url" },
    { "name": "kabuto", "url": "url" },
    { "name": "kabutops", "url": "url" },
    { "name": "aerodactyl", "url": "url" },
    { "name": "snorlax", "url": "url" },
    { "name": "articuno", "url": "url" },
    { "name": "zapdos", "url": "url" },
    { "name": "moltres", "url": "url" },
    { "name": "dratini", "url": "url" },
    { "name": "dragonair", "url": "url" },
    { "name": "dragonite", "url": "url" },
    { "name": "mewtwo", "url": "url" },
    { "name": "mew", "url": "url" }
  ]
}
